{
  "project_info": {
    "project_number": "781398067804",
    "firebase_url": "https://flipcardgame-cc8c4.firebaseio.com",
    "project_id": "flipcardgame-cc8c4",
    "storage_bucket": "flipcardgame-cc8c4.appspot.com"
  },
  "client": [
    {
      "client_info": {
        "mobilesdk_app_id": "1:781398067804:android:6f44ebd591ae899f",
        "android_client_info": {
          "package_name": "com.example.tolgahanalbayram.flipcardgame"
        }
      },
      "oauth_client": [
        {
          "client_id": "781398067804-84kj1q448rrts2487iq075dmmtnoi313.apps.googleusercontent.com",
          "client_type": 1,
          "android_info": {
            "package_name": "com.example.tolgahanalbayram.flipcardgame",
            "certificate_hash": "a9ff7e078aab3ec1b1b7e93cbebf5b6fd80ec050"
          }
        },
        {
          "client_id": "781398067804-nk9rpv7ib3jsostb2e1vlidjopchk6b9.apps.googleusercontent.com",
          "client_type": 3
        }
      ],
      "api_key": [
        {
          "current_key": "AIzaSyD-AO0Rxwz02Mpwxzb-aByr3ehASfRbFJM"
        }
      ],
      "services": {
        "analytics_service": {
          "status": 1
        },
        "appinvite_service": {
          "status": 2,
          "other_platform_oauth_client": [
            {
              "client_id": "781398067804-nk9rpv7ib3jsostb2e1vlidjopchk6b9.apps.googleusercontent.com",
              "client_type": 3
            }
          ]
        },
        "ads_service": {
          "status": 2
        }
      }
    }
  ],
  "configuration_version": "1"
}